{
    "Resources": {
        "WAF2WACLT6O": {
            "Type": "AWS::WAFv2::WebACL",
            "Properties": {
                "Name": "rf1",
                "Scope": "REGIONAL",
                "DefaultAction": {
                    "Allow": {}
                },
                "Description": "WebACL to control uploading to brands API",
                "Rules": [{
                    "Name": "BrandAPIRateLimit1",
                     "Priority": 0,
                    "Statement": {
        "RateBasedStatement": {
          "Limit": 100,
          "AggregateKeyType": "IP",
          "ScopeDownStatement": {
            "ByteMatchStatement": {
              "SearchString": "/en/brands/",
              "FieldToMatch": {
                "UriPath": {}
              },
              "TextTransformations": [
                {
                  "Priority": 0,
                  "Type": "NONE"
                }
              ],
              "PositionalConstraint": "CONTAINS"
            }
          }
        }
      },
      "Action": {
        "Block": {
          "CustomResponse": {
            "ResponseCode": 429
          }
        }
      },
      "VisibilityConfig": {
        "SampledRequestsEnabled": true,
        "CloudWatchMetricsEnabled": true,
        "MetricName": "BrandAPIRateLimit1"
      }
    }
  ],
  "VisibilityConfig": {
    "SampledRequestsEnabled": true,
    "CloudWatchMetricsEnabled": true,
    "MetricName": "rf1"
   }
            }
        }
    }
}